…
## Benford’s Law for the first-two digits

\[P(D_1D_2 = d_1d_2) = \log(d_1d_2+1) - \log(d_1d_2) = \log(1 + \frac{1}{d_1d_2});d_1d_2 = 10,\dots,99\]

``` r
benford_data <- 
    tibble(
        d_1d_2 = 10:99
        ,P = log10(d_1d_2+1) - log10(d_1d_2)
    )
benford_data
#> # A tibble: 90 x 2
#>    d_1d_2      P
#>     <int>  <dbl>
#>  1     10 0.0414
#>  2     11 0.0378
#>  3     12 0.0348
#>  4     13 0.0322
#>  5     14 0.0300
#>  6     15 0.0280
#>  7     16 0.0263
#>  8     17 0.0248
#>  9     18 0.0235
#> 10     19 0.0223
#> # ... with 80 more rows
…
